584959 832792 509
175249 854016 525
423589 312976 449
810595 4635 509
294468 161262 443
128603 138956 344
702689 770724 504
135417 984505 525
456382 76757 449
402265 856553 525
78543 500666 449
408129 428789 449
112029 769488 509
855057 310757 525
330117 132890 443
282518 914701 525
509633 19792 449
5025 700525 509
977368 924667 507
979112 550519 525
885098 362985 525
765249 283097 509
933695 202013 525
495452 57904 449
731711 501652 509
519197 863589 525
729948 445500 509
568554 531607 452
680370 214153 509
491359 479488 413
847937 431957 525
876446 555931 525
237656 238520 319
363984 241288 441
630953 442674 509
103932 831436 509
262143 154042 443
277371 17600 443
200990 870851 525
292088 100507 443
698489 954085 525
672984 387420 509
72039 194884 383
882797 959380 507
284761 192625 443
617837 568158 447
170361 797442 509
522858 694508 509
890866 881281 445
260270 87475 443
461001 713075 509
958082 86121 525
471220 652697 509
980785 647721 525
307035 392020 441
773638 945186 525
301448 705638 509
764192 196790 509
429326 826534 509
299885 7371 443
483693 926500 525
200778 948474 525
54306 218051 386
51086 99854 351
318384 263182 407
410917 14027 449
945449 569845 525
118331 513477 470
691218 322272 509
709412 110806 509
693061 380394 509
326758 657793 509
619023 260528 470
770615 659137 504
798806 623225 509
673664 560330 509
567623 986627 525
682616 56253 509
810336 474117 509
753319 46155 509
66834 174941 383
737256 368391 509
152740 594648 470
551136 735539 509
917425 171226 525
866716 56711 525
573450 530598 452
126008 123951 318
123633 523579 470
748413 338719 509
784725 692768 504
958740 329608 525
415460 276295 449
219271 411948 449
558848 909887 525
88144 213019 383
397593 923145 525
35221 934408 525
616136 770026 509
890385 814283 525
419625 656946 509
386384 157181 443
621830 71780 470
156594 154181 383
736848 287863 509
306165 428381 449
313159 959181 525
734907 481981 509
128028 395848 443
359880 475689 449
348744 428657 449
322164 497656 449
981596 430074 525
973186 660986 525
344395 218201 443
459966 166263 449
991233 385711 525
611215 958122 525
124402 328323 443
939156 93126 525
97466 837122 509
994310 453208 525
298252 437485 449
988823 797837 525
913905 520719 525
892889 495301 525
251679 35176 443
642998 177071 509
593167 547929 434
932529 191006 525
632154 652021 416
847374 167028 525
993252 969523 458
332577 281695 389
609775 896248 525
671021 454134 509
858784 636662 525
352653 3237 443
820725 295783 509
595743 192702 470
692085 153729 509
335890 569104 470
306774 110749 443
228524 212026 386
902125 924830 476
702592 596669 509
621868 499057 470
763161 623390 509
676835 436273 509
911631 490648 525
320544 829644 509
769299 237933 509
135461 389207 443
831340 685252 504
605366 242459 470
448045 756740 509
364330 462747 449
135990 25384 354
644564 701444 442
907314 487849 525
677001 707872 504
519175 595189 452
501162 653126 509
545483 31518 470
497538 519079 470
437037 932389 525
881780 327436 525
981208 860246 507
355324 321738 441
382555 2277 443
923844 433179 525
584984 818317 509
470031 374876 449
596467 428383 470
365874 812727 509
62566 587090 470
735192 461228 509
502121 665418 509
412862 93381 449
917672 900039 476
434568 157493 449
371112 618714 470
315530 706914 509
391188 97903 443
300647 132945 443
377777 591055 470
719477 852724 525
674357 875454 525
211301 264212 443
53623 301264 443
582149 632804 509
207993 696576 509
114965 622218 470
277284 212804 443
159999 931760 525
569623 352198 470
245232 14524 443
357084 248522 441
694839 792649 504
828174 869485 525
917406 617100 525
560927 372513 470
660822 806925 504
966404 520133 525
230909 374101 441
731772 200055 509
913965 21003 525
618955 470015 470
407269 208484 443
925945 919019 445
