4 9 20
7 3 17
5 5 6
5000 5000 29
143782 953087 525
894322 869053 445
194412 840294 525
787248 753365 468
594487 231968 470
465532 115753 449
5322 856310 525
164476 315866 443
593254 191436 470
879321 261377 525
215290 700906 509
164718 519874 470
954983 262890 525
469188 638634 509
433897 129279 449
926774 167403 525
673623 303573 509
51322 126059 354
355694 40025 443
387709 90411 443
982648 925747 507
95388 253581 443
144984 953998 525
822123 156521 509
141315 884662 525
797656 52059 509
717883 230131 509
196360 687305 509
271580 569025 470
451332 31454 449
334108 37953 443
105797 545879 470
288184 961164 525
900607 28217 525
537295 574422 452
373317 651342 509
352073 852765 525
229735 679792 509
770787 815506 468
475737 950374 525
586045 126169 470
736554 198941 509
650065 786423 504
705407 19837 509
725895 875796 525
52070 600698 470
747511 856070 525
716495 141634 509
459227 949449 525
185005 892837 525
853699 605177 525
461537 760917 509
704775 592321 509
53676 140935 354
970665 230009 525
151953 738482 509
734554 491152 509
55680 690842 509
858308 117788 525
116378 801207 509
331720 462211 449
648127 236853 509
301033 195129 443
300343 925870 525
176602 373828 443
80054 803800 509
727417 530094 509
920008 637595 525
432232 91881 449
297034 29231 443
340651 262188 407
12094 271056 443
966398 922892 507
986054 15781 525
523854 419383 470
759230 430385 509
628742 918509 525
74873 584788 470
823349 962919 525
742888 779224 468
949090 421010 525
795664 476413 509
506040 444848 444
90695 470856 449
595840 145223 470
592513 979051 525
975784 466256 525
779873 713901 468
664142 979379 525
368972 114046 443
22111 292210 443
601731 595019 403
388045 18004 443
559144 815532 509
624115 949559 525
551746 561784 421
16725 206780 383
537778 684969 509
187631 608081 470
346396 375349 410
250495 526432 470
770059 399154 509
600106 396687 470
478450 785960 509
667723 676952 385
908611 306831 525
462478 919076 525
563018 510606 470
901024 453355 525
823364 120242 509
201888 225009 386
238762 787703 509
965378 856584 507
916319 131143 525
781605 910314 525
63084 254768 443
350129 89811 443
636953 245985 509
355589 946492 525
825804 622681 509
438471 162926 449
504145 898959 525
585124 760508 509
324317 320461 371
665546 347575 509
333227 385859 441
593601 114894 470
166307 112563 383
971762 272168 525
605348 27753 470
658850 696908 442
375411 249337 441
8974 741554 509
566885 555227 421
567794 726781 509
851417 452001 525
715111 284571 509
253838 3088 443
208990 865797 525
875276 231234 525
438970 744071 509
206201 282866 443
132262 262882 443
513628 43120 470
295572 579195 470
274679 919768 525
777315 922556 525
450793 260795 449
707679 24106 509
977879 233932 525
378944 872974 525
243510 596108 470
925434 490353 525
345682 402143 441
559368 138529 470
433089 494122 444
652484 249948 509
815384 514450 509
26388 766832 509
686303 391490 509
895292 242101 525
880248 491002 525
155225 584219 470
269894 564084 470
66786 463314 449
685996 533352 509
714491 982886 525
613972 694331 509
493138 542764 470
392276 563860 470
193453 787966 509
691116 670061 398
434265 604360 470
231623 430805 449
426592 816393 509
564163 595766 434
844077 937881 476
198690 857403 525
854460 814868 525
256074 755011 509
724425 589050 509
985879 721076 525
258204 734578 509
400564 764965 509
218039 988274 525
753972 97215 509
453709 8351 449
341895 102105 443
621242 966677 525
905820 456421 525
961011 392705 525
796517 199238 509
643231 5822 509
295378 958643 525
454684 366645 449
130344 383210 443
50138 510975 449
708648 820263 468
90685 301531 443
350735 301474 441
149572 825344 509
368494 202230 443
479471 332849 449
793067 436292 509
758744 509336 509
457001 473312 444
4893 159593 383
17718 66966 340
444892 862775 525
912597 722694 525
206647 648029 509
411707 588457 470
392127 582722 470
109825 961264 525
476181 618382 470
830754 653907 504
297331 439643 449
612566 436613 470
731108 377518 509
258350 24974 443
342860 380269 441
525386 384471 470
188135 749921 509
930156 828372 525
634848 581865 509
779231 961440 525
269583 147067 443
490519 192161 449
879191 361713 525
365093 292140 441
23691 960132 525
779177 80442 509
297325 330211 384
405704 528510 470
671085 43370 509
487404 572633 470
428583 74654 449
433495 764476 509
104067 421340 449
422267 413014 387
239428 231172 381
347459 703119 509
284694 423572 449
61820 911956 525
95207 660979 509
281377 725546 509
573307 659256 509
137259 562640 470
875485 817797 525
787220 802027 468
861699 54528 525
730920 693077 504
909431 104856 525
422863 255604 449
442767 740277 509
455004 729474 509
915865 419847 525
742864 242630 509
504486 82078 449
937937 218099 525
306763 652089 509
195137 861824 525
948966 932072 507
843391 220301 525
597019 252945 470
363543 848175 525
527429 241796 470
367260 702396 509
31328 149557 375
680145 214989 509
349948 804719 509
640676 273586 509
998022 320667 525
960310 660184 525
732344 942800 525
377225 485581 449
60668 142289 354
723916 187131 509
379615 778118 509
244467 710295 509
872618 31912 525
872888 549683 525
900843 205090 525
164557 665812 509
257248 706445 509
279127 475081 449
823363 69005 509
251364 589151 470
147328 742075 509
444659 704480 509
528879 242572 470
574129 803503 509
346475 577884 470
190093 413712 449
589928 605833 403
836049 522704 509
956185 110047 525
213498 113384 383
810851 275103 509
210984 818221 509
